{
             "id": 1,
             "place_type_id": 1,
             "title": {
                "en": "Gasa Production",
                "es": "Unidad de Producción de",
                "pt_BR": "Parque de Bioenergia"
             },
             "subtitle": {
                "en": "Unit",
                "es": "Gasa",
                "pt_BR": "Gasa"
             },
             "address": "Rodovia de Acesso UHE Três irmãos",
             "district": "Guanabara",
             "postal_code": null,
             "country": "Andradina - SP, Brasil",
             "description": "<br>",
             "lat": "-20.7709754",
             "lng": "-51.26117869999996",
             "order": null,
             "created_at": "2019-03-27 17:15:21",
             "updated_at": "2022-04-04 10:29:29"
          },
          {
             "id": 3,
             "place_type_id": 1,
             "title": {
                "en": "Serra Production",
                "es": "Unidad de Producción de",
                "pt_BR": "Parque de Bioenergia"
             },
             "subtitle": {
                "en": "Unit",
                "es": "Serra",
                "pt_BR": "Serra"
             },
             "address": "Fazenda da Serra, área 1",
             "district": "Zona Rural",
             "postal_code": "14815-000",
             "country": "Ibaté - SP, Brasil",
             "description": null,
             "lat": "-22.0117316",
             "lng": "-48.000311",
             "order": null,
             "created_at": "2019-03-27 17:15:21",
             "updated_at": "2022-04-04 10:30:55"
          },
          {
             "id": 4,
             "place_type_id": 1,
             "title": {
                "en": "Araraquara Production",
                "es": "Unidad de Producción de",
                "pt_BR": "Parque de Bioenergia"
             },
             "subtitle": {
                "en": "Unit",
                "es": "Araraquara",
                "pt_BR": "Araraquara"
             },
             "address": "Rodovia Francisco José Zanin, km 04",
             "district": "Parque das Hortencias",
             "postal_code": "14810-970",
             "country": "Araraquara - SP, Brasil",
             "description": null,
             "lat": "-21.8587903",
             "lng": "-48.18637849999999",
             "order": null,
             "created_at": "2019-03-27 17:15:21",
             "updated_at": "2022-04-04 10:31:00"
          },
          {
             "id": 5,
             "place_type_id": 1,
             "title": {
                "en": "Barra Bonita Production",
                "es": "Unidad de Producción de",
                "pt_BR": "Parque de Bioenergia"
             },
             "subtitle": {
                "en": "Unit",
                "es": "Barra Bonita",
                "pt_BR": "Barra Bonita"
             },
             "address": "Fazenda Pau D`Alho",
             "district": "Zona Rural",
             "postal_code": "17340-000",
             "country": "Barra Bonita - SP, Brasil",
             "description": null,
             "lat": "-22.4796071",
             "lng": "-48.54124209999998",
             "order": null,
             "created_at": "2019-03-27 17:15:21",
             "updated_at": "2022-04-04 10:31:06"
          },
          {
             "id": 6,
             "place_type_id": 1,
             "title": {
                "en": "Benalcool Production",
                "es": "Unidad de Producción de",
                "pt_BR": "Parque de Bioenergia"
             },
             "subtitle": {
                "en": "Unit",
                "es": "Benálcool",
                "pt_BR": "Benálcool"
             },
             "address": "Rodovia Marechal Rondon",
             "district": "Parque Industrial",
             "postal_code": "16790-000",
             "country": "Bento de Abreu - SP, Brasil",
             "description": null,
             "lat": "-21.228787",
             "lng": "-50.7780111",
             "order": null,
             "created_at": "2019-03-27 17:15:21",
             "updated_at": "2022-04-04 10:31:12"
          },
          {
             "id": 7,
             "place_type_id": 1,
             "title": {
                "en": "Bom Retiro Production",
                "es": "Unidad de Producción de",
                "pt_BR": "Parque de Bioenergia"
             },
             "subtitle": {
                "en": "Unit",
                "es": "Bom Retiro",
                "pt_BR": "Bom Retiro"
             },
             "address": "Fazenda Bom Retiro",
             "district": "Zona Rural",
             "postal_code": "13360-000",
             "country": "Capivari - SP, Brasil",
             "description": null,
             "lat": "-22.8765885",
             "lng": "-47.4637411",
             "order": null,
             "created_at": "2019-03-27 17:15:21",
             "updated_at": "2022-04-04 10:31:18"
          },
          {
             "id": 8,
             "place_type_id": 1,
             "title": {
                "en": "Bonfim Production",
                "es": "Unidad de Producción de",
                "pt_BR": "Parque de Bioenergia"
             },
             "subtitle": {
                "en": "Unit",
                "es": "Bonfim",
                "pt_BR": "Bonfim"
             },
             "address": "Rodovia Brigadeiro Faria Lima, Km 322",
             "district": null,
             "postal_code": "14840-000",
             "country": "Guariba - SP, Brasil",
             "description": null,
             "lat": "-21.4189697",
             "lng": "-48.28894939999998",
             "order": null,
             "created_at": "2019-03-27 17:15:21",
             "updated_at": "2022-04-04 10:31:24"
          },
          {
             "id": 9,
             "place_type_id": 1,
             "title": {
                "en": "Caarapó Production",
                "es": "Unidad de Producción de",
                "pt_BR": "Parque de Bioenergia"
             },
             "subtitle": {
                "en": "Unit",
                "es": "Caarapó",
                "pt_BR": "Caarapó"
             },
             "address": "Rod MS 156, KM 12",
             "district": "Zona Rural",
             "postal_code": "79940-000",
             "country": "Caarapó - MS, Brasil",
             "description": null,
             "lat": "-22.6138708",
             "lng": "-54.6960925",
             "order": 1,
             "created_at": "2019-05-08 19:37:10",
             "updated_at": "2022-04-04 10:30:51"
          },
          {
             "id": 10,
             "place_type_id": 1,
             "title": {
                "en": "Costa Pinto Production",
                "es": "Unidad de Producción de",
                "pt_BR": "Parque de Bioenergia"
             },
             "subtitle": {
                "en": "Unit",
                "es": "Costa Pinto",
                "pt_BR": "Costa Pinto"
             },
             "address": "Rodovia Hermínio Petrin, KM 175",
             "district": "Costa Pinto",
             "postal_code": "13411-900",
             "country": "Piracicaba - SP, Brasil",
             "description": null,
             "lat": "-22.6372277",
             "lng": "-47.6846491",
             "order": 2,
             "created_at": "2019-05-08 19:53:13",
             "updated_at": "2022-04-04 10:33:21"
          },
          {
             "id": 11,
             "place_type_id": 1,
             "title": {
                "en": "Destivale Production",
                "es": "Unidad de Producción de",
                "pt_BR": "Parque de Bioenergia"
             },
             "subtitle": {
                "en": "Unit",
                "es": "Destival",
                "pt_BR": "Destivale"
             },
             "address": "Rodovia Eliezer Montenegro Magalhães, KM 58",
             "district": "Parque Res. Aeroporto",
             "postal_code": "16078-010",
             "country": "Araçatuba - SP, Brasil",
             "description": null,
             "lat": "-21.1874232",
             "lng": "-50.46874100000002",
             "order": 3,
             "created_at": "2019-05-08 20:05:35",
             "updated_at": "2022-04-04 10:33:28"
          },
          {
             "id": 12,
             "place_type_id": 1,
             "title": {
                "en": "Diamante Production",
                "es": "Unidad de Producción de",
                "pt_BR": "Parque de Bioenergia"
             },
             "subtitle": {
                "en": "Unit",
                "es": "Diamante",
                "pt_BR": "Diamante"
             },
             "address": "Fazenda São José",
             "district": "Distrito Potunduva",
             "postal_code": "17204-220",
             "country": "Jaú - SP, Brasil",
             "description": null,
             "lat": "-22.3674397",
             "lng": "-48.6861974",
             "order": 4,
             "created_at": "2019-05-08 20:15:35",
             "updated_at": "2022-04-04 10:33:35"
          },
          {
             "id": 13,
             "place_type_id": 1,
             "title": {
                "en": "Dois Córregos Production",
                "es": "Unidad de Producción de",
                "pt_BR": "Parque de Bioenergia"
             },
             "subtitle": {
                "en": "Unit",
                "es": "Dois Córregos",
                "pt_BR": "Dois Córregos"
             },
             "address": "Fazenda Santo Antonio Prédio - Prédio 22",
             "district": "Zona Rural",
             "postal_code": "17300-000",
             "country": "Dois Córregos - SP, Brasil",
             "description": null,
             "lat": "-22.3391999",
             "lng": "-48.406105",
             "order": 5,
             "created_at": "2019-05-08 20:26:42",
             "updated_at": "2022-04-04 10:33:42"
          },
          {
             "id": 14,
             "place_type_id": 1,
             "title": {
                "en": "Ipaussu Production",
                "es": "Unidad de Producción de",
                "pt_BR": "Parque de Bioenergia"
             },
             "subtitle": {
                "en": "Unit",
                "es": "Ipaussu",
                "pt_BR": "Ipaussu"
             },
             "address": "Av. Rui Barbosa, 91-183",
             "district": null,
             "postal_code": "18950-000",
             "country": "Ipaussu - SP, Brasil",
             "description": null,
             "lat": "-23.0552782",
             "lng": "-49.623678",
             "order": 6,
             "created_at": "2019-05-08 20:34:27",
             "updated_at": "2022-04-04 10:33:49"
          },
          {
             "id": 15,
             "place_type_id": 1,
             "title": {
                "en": "Jataí Production",
                "es": "Unidad de Producción de",
                "pt_BR": "Parque de Bioenergia"
             },
             "subtitle": {
                "en": "Unit",
                "es": "Jataí",
                "pt_BR": "Jataí"
             },
             "address": "Rodovia GO 406 - Fazenda Santo Antonio do Rio Doce",
             "district": null,
             "postal_code": null,
             "country": "Jataí - GO, Brasil",
             "description": null,
             "lat": "-17.7014111",
             "lng": "-51.6261506",
             "order": 7,
             "created_at": "2019-05-08 20:55:15",
             "updated_at": "2022-04-04 10:33:55"
          },
          {
             "id": 16,
             "place_type_id": 1,
             "title": {
                "en": "Junqueira Production",
                "es": "Unidad de Producción de",
                "pt_BR": "Parque de Bioenergia"
             },
             "subtitle": {
                "en": "Unit",
                "es": "Junqueira",
                "pt_BR": "Junqueira"
             },
             "address": "Estação Coronel Quito, s/nº",
             "district": "Zona Rural",
             "postal_code": "14540-000",
             "country": "Igarapava - SP, Brasil",
             "description": null,
             "lat": "-19.9903603",
             "lng": "-47.7983986",
             "order": 8,
             "created_at": "2019-05-08 21:02:15",
             "updated_at": "2022-04-04 10:34:02"
          },
          {
             "id": 17,
             "place_type_id": 1,
             "title": {
                "en": "Maracaí Production",
                "es": "Unidad de Producción de",
                "pt_BR": "Parque de Bioenergia"
             },
             "subtitle": {
                "en": "Unit",
                "es": "Maracaí",
                "pt_BR": "Maracaí"
             },
             "address": "Fazenda Santa Amélia, 1",
             "district": null,
             "postal_code": "19840-000",
             "country": "Maracaí - SP, Brasil",
             "description": null,
             "lat": "-22.5755732",
             "lng": "-50.6534314",
             "order": 9,
             "created_at": "2019-05-08 21:05:58",
             "updated_at": "2022-04-04 10:34:14"
          },
          {
             "id": 18,
             "place_type_id": 1,
             "title": {
                "en": "Mundial Production",
                "es": "Unidad de Producción de",
                "pt_BR": "Parque de Bioenergia"
             },
             "subtitle": {
                "en": "Unit",
                "es": "Mundial",
                "pt_BR": "Mundial"
             },
             "address": "Estrada Mirandóplis / Pacaembu, KM 13,5",
             "district": null,
             "postal_code": "16800-000",
             "country": "Mirandópolis - SP, Brasil",
             "description": null,
             "lat": "-21.1968561",
             "lng": "-51.2168707",
             "order": 10,
             "created_at": "2019-05-08 21:28:50",
             "updated_at": "2022-04-04 10:34:21"
          },
          {
             "id": 19,
             "place_type_id": 1,
             "title": {
                "en": "Paraguaçu Production",
                "es": "Unidad de Producción de",
                "pt_BR": "Parque de Bioenergia"
             },
             "subtitle": {
                "en": "Unit",
                "es": "Paraguaçu",
                "pt_BR": "Paraguaçu"
             },
             "address": "Sitio Paralcool - Prédio 1",
             "district": null,
             "postal_code": "19700-000",
             "country": "Paraguaçu Paulista",
             "description": null,
             "lat": "-22.464153",
             "lng": "-50.493417",
             "order": 11,
             "created_at": "2019-05-08 21:31:31",
             "updated_at": "2022-04-04 10:34:26"
          },
          {
             "id": 20,
             "place_type_id": 1,
             "title": {
                "en": "Paraíso Production",
                "es": "Unidad de Producción de",
                "pt_BR": "Parque de Bioenergia"
             },
             "subtitle": {
                "en": "Unit",
                "es": "Paraíso",
                "pt_BR": "Paraíso"
             },
             "address": "Rod. Brotas/Torrinha, Km 7,5 S/Nº - Faz. Paraíso",
             "district": "Zona Rural",
             "postal_code": "17380-000",
             "country": "Brotas - SP, Brasil",
             "description": null,
             "lat": "-22.3513702",
             "lng": "-48.1066451",
             "order": 12,
             "created_at": "2019-05-08 21:34:16",
             "updated_at": "2022-04-04 10:34:33"
          },
          {
             "id": 21,
             "place_type_id": 1,
             "title": {
                "en": "Rafard Production",
                "es": "Unidad de Producción de",
                "pt_BR": "Parque de Bioenergia"
             },
             "subtitle": {
                "en": "Unit",
                "es": "Rafard",
                "pt_BR": "Rafard"
             },
             "address": "Rua do Engenho 1",
             "district": "Centro",
             "postal_code": "13370-000",
             "country": "Rafard - SP, Brasil",
             "description": null,
             "lat": "-23.0086919",
             "lng": "-47.5309186",
             "order": 13,
             "created_at": "2019-05-08 21:37:12",
             "updated_at": "2022-04-04 10:34:39"
          },
          {
             "id": 22,
             "place_type_id": 1,
             "title": {
                "en": "Santa Cândida Production",
                "es": "Unidad de Producción de",
                "pt_BR": "Parque de Bioenergia"
             },
             "subtitle": {
                "en": "Unit",
                "es": "Santa Cândida",
                "pt_BR": "Santa Cândida"
             },
             "address": "Rod. Jaú-Araraquara, Km 129, Faz. Santa. Cândida",
             "district": "Distrito Rural",
             "postal_code": "17240-000",
             "country": "Bocaina - SP, Brasil",
             "description": null,
             "lat": "-22.1048683",
             "lng": "-48.4811374",
             "order": 14,
             "created_at": "2019-05-08 21:45:27",
             "updated_at": "2022-04-04 10:34:45"
          },
          {
             "id": 23,
             "place_type_id": 1,
             "title": {
                "en": "Santa Helena Production",
                "es": "Unidad de Producción de",
                "pt_BR": "Parque de Bioenergia"
             },
             "subtitle": {
                "en": "Unit",
                "es": "Santa Helena",
                "pt_BR": "Santa Helena"
             },
             "address": "Rua São Paulo, 127",
             "district": "Jardim Bom Jesus",
             "postal_code": "13390-000",
             "country": "Rio das Pedras - SP, Brasil",
             "description": null,
             "lat": "-22.8019114",
             "lng": "-47.6626233",
             "order": 15,
             "created_at": "2019-05-08 21:55:22",
             "updated_at": "2022-04-04 10:34:52"
          },
          {
             "id": 24,
             "place_type_id": 1,
             "title": {
                "en": "São Francisco Production",
                "es": "Unidad de Producción de",
                "pt_BR": "Parque de Bioenergia"
             },
             "subtitle": {
                "en": "Unit",
                "es": "São Francisco",
                "pt_BR": "São Francisco"
             },
             "address": "Fazenda Sobrado - Area co-g 1",
             "district": "Sobrado",
             "postal_code": "13350-000",
             "country": "Elias Fausto - SP, Brasil",
             "description": null,
             "lat": "-23.0236208",
             "lng": "-47.4572219",
             "order": 16,
             "created_at": "2019-05-08 22:08:05",
             "updated_at": "2022-04-04 10:34:58"
          },
          {
             "id": 25,
             "place_type_id": 1,
             "title": {
                "en": "Tamoio Production",
                "es": "Unidad de Producción de",
                "pt_BR": "Parque de Bioenergia"
             },
             "subtitle": {
                "en": "Unit",
                "es": "Tamoio",
                "pt_BR": "Tamoio"
             },
             "address": "Rodovia Washigton Luiz, km 236",
             "district": "Zona Rural",
             "postal_code": "14810-105",
             "country": "Araraquara - SP, Brasil",
             "description": null,
             "lat": "-21.9091983",
             "lng": "-48.1172777",
             "order": 17,
             "created_at": "2019-05-08 22:10:00",
             "updated_at": "2022-04-04 10:35:04"
          },
          {
             "id": 26,
             "place_type_id": 1,
             "title": {
                "en": "Tarumã Production",
                "es": "Unidad de Producción de",
                "pt_BR": "Parque de Bioenergia"
             },
             "subtitle": {
                "en": "Unit",
                "es": "Tarumã",
                "pt_BR": "Tarumã"
             },
             "address": "Fazenda Nova América",
             "district": null,
             "postal_code": "19820-000",
             "country": "Tarumã - SP, Brasil",
             "description": null,
             "lat": "-22.7856255",
             "lng": "-50.5473105",
             "order": 18,
             "created_at": "2019-05-08 22:27:33",
             "updated_at": "2022-04-04 10:35:11"
          },
          {
             "id": 27,
             "place_type_id": 1,
             "title": {
                "en": "Univalem Production",
                "es": "Unidad de Producción de",
                "pt_BR": "Parque de Bioenergia"
             },
             "subtitle": {
                "en": "Unit",
                "es": "Univalem",
                "pt_BR": "Univalem"
             },
             "address": "Rodovia Dr. Placido Rocha SP541 , Km 39",
             "district": "Zona Rural",
             "postal_code": "16880-000",
             "country": "Valparaiso - SP, Brasil",
             "description": null,
             "lat": "-21.3279863",
             "lng": "-50.9490644",
             "order": 19,
             "created_at": "2019-05-08 22:29:29",
             "updated_at": "2022-04-04 10:35:17"
          },
          {
             "id": 117,
             "place_type_id": 1,
             "title": {
                "pt_BR": "Parque de Bioenergia"
             },
             "subtitle": {
                "pt_BR": "Santa Elisa"
             },
             "address": "Rodovia Armando de Salles Oliveira, km 346,3",
             "district": null,
             "postal_code": "14176-500",
             "country": "Sertãozinho - SP, Brasil",
             "description": null,
             "lat": "-21.10864986110471",
             "lng": "-48.07756729564037",
             "order": 109,
             "created_at": "2021-08-11 09:50:23",
             "updated_at": "2022-04-04 10:35:37"
          },
          {
             "id": 118,
             "place_type_id": 1,
             "title": {
                "pt_BR": "Parque de Bioenergia"
             },
             "subtitle": {
                "pt_BR": "Vale do Rosário"
             },
             "address": "Fazenda Invernada",
             "district": "Zona Rural",
             "postal_code": "14640-000",
             "country": "Morro Agudo - SP, Brasil",
             "description": null,
             "lat": "-20.613263349369852",
             "lng": "-47.99926145341646",
             "order": 110,
             "created_at": "2021-08-11 09:52:44",
             "updated_at": "2022-04-04 10:35:43"
          },
          {
             "id": 119,
             "place_type_id": 1,
             "title": {
                "pt_BR": "Parque de Bioenergia"
             },
             "subtitle": {
                "pt_BR": "MB"
             },
             "address": "Fazenda Sucuri",
             "district": "Zona rural",
             "postal_code": "14640-000",
             "country": "Morro Agudo - SP, Brasil",
             "description": null,
             "lat": "-20.82698414400657",
             "lng": "-48.142757288608365",
             "order": 111,
             "created_at": "2021-08-11 09:56:38",
             "updated_at": "2022-04-04 10:35:51"
          },
          {
             "id": 120,
             "place_type_id": 1,
             "title": {
                "pt_BR": "Parque de Bioenergia"
             },
             "subtitle": {
                "pt_BR": "Continental"
             },
             "address": "Rodovia Brigadeiro Faria Lima, km 458,5",
             "district": null,
             "postal_code": "14795-000",
             "country": "Colômbia - SP, Brasil",
             "description": null,
             "lat": "-20.232000056391065",
             "lng": "-48.62401143742494",
             "order": 112,
             "created_at": "2021-08-11 09:59:29",
             "updated_at": "2022-04-04 10:35:56"
          },
          {
             "id": 121,
             "place_type_id": 1,
             "title": {
                "pt_BR": "Parque de Bioenergia"
             },
             "subtitle": {
                "pt_BR": "Leme"
             },
             "address": "Estrada Vicinal José de Souza Queiroz Filho, km 12",
             "district": "Zona Rural",
             "postal_code": "13610-970",
             "country": "Leme - SP, Brasil",
             "description": null,
             "lat": "-22.160892141295797",
             "lng": "-47.25865003240223",
             "order": 113,
             "created_at": "2021-08-11 10:00:58",
             "updated_at": "2022-04-04 10:36:03"
          },
          {
             "id": 122,
             "place_type_id": 1,
             "title": {
                "pt_BR": "Parque de Bioenergia"
             },
             "subtitle": {
                "pt_BR": "Lagoa da Prata"
             },
             "address": "Vila Luciânia, s/n°",
             "district": "Zona Rural",
             "postal_code": "35590-000",
             "country": "Lagoa da Prata - MG, Brasil",
             "description": null,
             "lat": "-20.07560553197357",
             "lng": "-45.56392035887748",
             "order": 114,
             "created_at": "2021-08-11 10:02:26",
             "updated_at": "2022-04-04 10:36:08"
          },
          {
             "id": 123,
             "place_type_id": 1,
             "title": {
                "pt_BR": "Parque de Bioenergia"
             },
             "subtitle": {
                "pt_BR": "Passa Tempo"
             },
             "address": "Fazenda Passa Tempo",
             "district": "Zona Rural",
             "postal_code": "79130-000",
             "country": "Rio Brilhante - MS, Brasil",
             "description": null,
             "lat": "-21.516706977039007",
             "lng": "-54.71118616735691",
             "order": 115,
             "created_at": "2021-08-11 10:04:04",
             "updated_at": "2022-04-04 10:36:15"
          },
          {
             "id": 124,
             "place_type_id": 1,
             "title": {
                "pt_BR": "Parque de Bioenergia"
             },
             "subtitle": {
                "pt_BR": "Rio Brilhante"
             },
             "address": "Rodovia BR 163, km 329,6 – Fazenda Santa Maria",
             "district": "Zona Rural",
             "postal_code": "79130-000",
             "country": "Rio Brilhante - MS, Brasil",
             "description": null,
             "lat": "-21.724528406708938",
             "lng": "-54.4582486139151",
             "order": 116,
             "created_at": "2021-08-11 10:06:03",
             "updated_at": "2022-04-04 10:36:21"
          }