<?xml version="1.0" encoding="UTF-8"?>
<svg id="a" data-name="Camada 1" xmlns="http://www.w3.org/2000/svg" width="480" height="300" viewBox="0 0 480 300">
  <path d="M352.033,125.668h-64.622c-.09,0-.176-.041-.234-.107-.058-.07-.084-.16-.069-.249.34-2.031,2.08-3.505,4.139-3.505.768,0,1.505.206,2.156.598.576-2.834,2.944-4.932,5.846-5.155.025-7.099,5.807-12.869,12.914-12.869,5.904,0,11.004,3.951,12.489,9.638,1.734.017,3.422.595,4.799,1.639,1.732-2.441,4.518-3.888,7.521-3.888,5.049,0,9.163,4.08,9.217,9.118.449-.135.913-.206,1.386-.206,2.578,0,4.714,2.097,4.761,4.675.002.083-.03.16-.087.22s-.135.092-.218.092M287.791,125.056h63.917c-.198-2.101-1.988-3.762-4.131-3.762-.547,0-1.08.106-1.584.315-.095.039-.206.026-.291-.033-.086-.059-.134-.157-.131-.262.005-.109.009-.217.009-.326,0-4.747-3.862-8.607-8.607-8.607-2.907,0-5.597,1.452-7.197,3.888-.048.072-.125.12-.21.134-.086.012-.173-.012-.241-.067-1.334-1.101-3.024-1.707-4.758-1.707l-.148.005c-.132.005-.268-.097-.302-.235-1.337-5.538-6.253-9.406-11.953-9.406-6.783,0-12.302,5.519-12.302,12.302,0,.047.002.095.003.143l.003.095c.003.168-.128.307-.296.313-2.902.09-5.275,2.243-5.641,5.12-.016.109-.086.202-.187.245-.101.042-.218.026-.305-.042-.636-.491-1.393-.751-2.192-.751-1.636,0-3.036,1.089-3.457,2.637" fill="#fff" stroke-width="0"/>
  <path d="M439.472,65.15h-83.502c-.084,0-.165-.036-.224-.098-.058-.061-.087-.145-.081-.229.185-2.625,2.393-4.681,5.022-4.681.849,0,1.676.212,2.416.617.916-3.145,3.771-5.306,7.082-5.306.53,0,1.07.061,1.609.182,1.028-5.888,6.236-10.286,12.25-10.286,2.106,0,4.18.536,6.016,1.553,2.765-3.569,6.917-5.61,11.437-5.61,7.878,0,14.305,6.329,14.462,14.168.118-.006.227-.008.332-.008,2.058,0,3.988.844,5.384,2.337,1.175-4.159,5.039-7.118,9.407-7.118,5.392,0,9.777,4.385,9.777,9.775,0,1.576-.386,3.147-1.119,4.539-.051.101-.157.164-.269.164M356.311,64.538h82.972c.64-1.277.964-2.653.964-4.091,0-5.052-4.111-9.163-9.165-9.163-4.282,0-8.049,3.035-8.953,7.217-.026.115-.115.206-.231.234-.115.026-.235-.016-.31-.109-1.296-1.628-3.228-2.561-5.298-2.561-.178,0-.371.009-.608.03-.087.008-.171-.02-.234-.078-.064-.059-.1-.14-.1-.226v-.034c0-7.636-6.214-13.852-13.853-13.852-4.416,0-8.465,2.034-11.11,5.578-.092.125-.263.16-.399.081-1.801-1.048-3.855-1.603-5.944-1.603-5.826,0-10.855,4.34-11.699,10.096-.013.087-.061.164-.134.212-.075.048-.164.062-.249.039-.595-.162-1.192-.243-1.778-.243-3.164,0-5.874,2.153-6.591,5.236-.022.098-.09.179-.184.215-.093.037-.199.026-.283-.028-.726-.481-1.569-.735-2.44-.735-2.2,0-4.061,1.639-4.376,3.785" fill="#fff" stroke-width="0"/>
  <path d="M156.761,105.111H39.508c-.154,0-.285-.115-.302-.271-.044-.368-.065-.731-.065-1.076,0-5.105,4.151-9.256,9.256-9.256,2.316,0,4.485.837,6.186,2.371.109-8.692,7.216-15.732,15.935-15.732,7.716,0,14.215,5.401,15.648,12.916,1.849-1.43,4.128-2.212,6.473-2.212,1.401,0,2.759.27,4.042.802.513-4.328,2.56-8.319,5.795-11.277,3.362-3.077,7.724-4.768,12.283-4.768s8.921,1.692,12.281,4.768c3.236,2.958,5.284,6.949,5.795,11.277,1.285-.533,2.642-.802,4.044-.802,5.501,0,10.021,4.158,10.534,9.566,1.052-.72,2.305-1.109,3.589-1.109,2.768,0,5.2,1.77,6.049,4.404.031.093.014.195-.042.274-.059.079-.151.126-.248.126M39.785,104.498h116.538c-.875-2.158-2.961-3.58-5.321-3.58-1.335,0-2.634.467-3.661,1.316-.089.075-.213.09-.319.044s-.176-.151-.181-.266c-.223-5.356-4.6-9.551-9.962-9.551-1.453,0-2.858.308-4.175.916-.09.042-.196.037-.282-.012-.086-.05-.142-.137-.151-.235-.861-9.071-8.39-15.911-17.513-15.911s-16.651,6.84-17.513,15.911c-.009.098-.067.185-.153.235-.086.05-.19.054-.28.012-1.316-.608-2.722-.916-4.175-.916-2.376,0-4.68.852-6.485,2.399-.084.073-.199.093-.304.056-.104-.039-.181-.131-.198-.24-1.181-7.485-7.544-12.917-15.134-12.917-8.449,0-15.324,6.873-15.324,15.324,0,.145.005.29.009.435l.003.089c.005.128-.07.243-.187.293-.117.048-.254.02-.341-.072-1.651-1.748-3.882-2.709-6.281-2.709-4.767,0-8.644,3.877-8.644,8.644,0,.237.011.484.033.735" fill="#fff" stroke-width="0"/>
  <path d="M354.991,255.382h-2.449v-107.944c0-1.893,1.539-3.433,3.432-3.433h1.807v2.449h-1.807c-.542,0-.983.442-.983.985v107.944Z" fill="#fff" stroke-width="0"/>
  <rect x="361.367" y="131.219" width="51.57" height="127.181" fill="#781e77" stroke-width="0"/>
  <path d="M412.937,258.707h-51.57c-.17,0-.307-.137-.307-.307v-127.179c0-.17.137-.307.307-.307h51.57c.17,0,.307.137.307.307v127.179c0,.17-.137.307-.307.307M361.672,258.094h50.958v-126.569h-50.958v126.569Z" fill="#fff" stroke-width="0"/>
  <path d="M365.624,239.185c-.17,0-.305-.137-.305-.305v-103.403c0-.17.136-.307.305-.307.168,0,.305.137.305.307v103.403c0,.168-.137.305-.305.305" fill="#91c349" stroke-width="0"/>
  <path d="M412.938,131.22c0-14.241-11.545-25.786-25.786-25.786s-25.784,11.545-25.784,25.786h51.571Z" fill="#781e77" stroke-width="0"/>
  <path d="M412.938,131.526h-51.572c-.168,0-.305-.137-.305-.307,0-14.386,11.705-26.091,26.091-26.091s26.091,11.705,26.091,26.091c0,.17-.137.307-.305.307M361.675,130.913h50.955c-.165-13.909-11.531-25.174-25.478-25.174s-25.313,11.264-25.478,25.174" fill="#fff" stroke-width="0"/>
  <path d="M366.047,127.268c-.02,0-.041-.002-.061-.006-.165-.034-.273-.195-.24-.36,2.044-10.151,11.046-17.517,21.406-17.517.168,0,.307.137.307.307,0,.168-.139.305-.307.305-10.07,0-18.818,7.161-20.806,17.025-.028.146-.156.246-.299.246" fill="#91c349" stroke-width="0"/>
  <rect x="357.782" y="141.553" width="3.585" height="7.353" fill="#781e77" stroke-width="0"/>
  <path d="M361.367,149.211h-3.585c-.17,0-.307-.137-.307-.305v-7.353c0-.168.137-.305.307-.305h3.585c.168,0,.305.137.305.305v7.353c0,.168-.137.305-.305.305M358.088,148.599h2.972v-6.739h-2.972v6.739Z" fill="#fff" stroke-width="0"/>
  <path d="M404.329,255.688c-.17,0-.307-.137-.307-.305v-124.163c0-.168.137-.305.307-.305.168,0,.305.137.305.305v124.163c0,.168-.137.305-.305.305" fill="#fff" stroke-width="0"/>
  <path d="M396.471,255.688c-.168,0-.305-.137-.305-.305v-124.163c0-.168.137-.305.305-.305s.305.137.305.305v124.163c0,.168-.137.305-.305.305" fill="#fff" stroke-width="0"/>
  <path d="M404.329,131.526h-7.858c-.17,0-.307-.137-.307-.305,0-.17.137-.307.307-.307h7.858c.168,0,.305.137.305.307,0,.168-.137.305-.305.305" fill="#fff" stroke-width="0"/>
  <path d="M404.329,137.438h-7.858c-.17,0-.307-.137-.307-.305,0-.17.137-.307.307-.307h7.858c.168,0,.305.137.305.307,0,.168-.137.305-.305.305" fill="#fff" stroke-width="0"/>
  <path d="M404.329,143.351h-7.858c-.17,0-.307-.137-.307-.305,0-.17.137-.307.307-.307h7.858c.168,0,.305.137.305.307,0,.168-.137.305-.305.305" fill="#fff" stroke-width="0"/>
  <path d="M404.329,149.263h-7.858c-.17,0-.307-.137-.307-.305,0-.17.137-.307.307-.307h7.858c.168,0,.305.137.305.307,0,.168-.137.305-.305.305" fill="#fff" stroke-width="0"/>
  <path d="M404.329,155.176h-7.858c-.17,0-.307-.137-.307-.305,0-.17.137-.307.307-.307h7.858c.168,0,.305.137.305.307,0,.168-.137.305-.305.305" fill="#fff" stroke-width="0"/>
  <path d="M404.329,161.088h-7.858c-.17,0-.307-.137-.307-.305,0-.17.137-.307.307-.307h7.858c.168,0,.305.137.305.307,0,.168-.137.305-.305.305" fill="#fff" stroke-width="0"/>
  <path d="M404.329,167.001h-7.858c-.17,0-.307-.137-.307-.305,0-.17.137-.307.307-.307h7.858c.168,0,.305.137.305.307,0,.168-.137.305-.305.305" fill="#fff" stroke-width="0"/>
  <path d="M404.329,172.913h-7.858c-.17,0-.307-.137-.307-.305,0-.17.137-.307.307-.307h7.858c.168,0,.305.137.305.307,0,.168-.137.305-.305.305" fill="#fff" stroke-width="0"/>
  <path d="M404.329,178.826h-7.858c-.17,0-.307-.137-.307-.305,0-.17.137-.307.307-.307h7.858c.168,0,.305.137.305.307,0,.168-.137.305-.305.305" fill="#fff" stroke-width="0"/>
  <path d="M404.329,184.738h-7.858c-.17,0-.307-.137-.307-.305,0-.17.137-.307.307-.307h7.858c.168,0,.305.137.305.307,0,.168-.137.305-.305.305" fill="#fff" stroke-width="0"/>
  <path d="M404.329,190.651h-7.858c-.17,0-.307-.137-.307-.305,0-.17.137-.307.307-.307h7.858c.168,0,.305.137.305.307,0,.168-.137.305-.305.305" fill="#fff" stroke-width="0"/>
  <path d="M404.329,196.563h-7.858c-.17,0-.307-.137-.307-.305,0-.17.137-.307.307-.307h7.858c.168,0,.305.137.305.307,0,.168-.137.305-.305.305" fill="#fff" stroke-width="0"/>
  <path d="M404.329,202.476h-7.858c-.17,0-.307-.137-.307-.305,0-.17.137-.307.307-.307h7.858c.168,0,.305.137.305.307,0,.168-.137.305-.305.305" fill="#fff" stroke-width="0"/>
  <path d="M404.329,208.388h-7.858c-.17,0-.307-.137-.307-.305,0-.17.137-.307.307-.307h7.858c.168,0,.305.137.305.307,0,.168-.137.305-.305.305" fill="#fff" stroke-width="0"/>
  <path d="M404.329,214.301h-7.858c-.17,0-.307-.137-.307-.305,0-.17.137-.307.307-.307h7.858c.168,0,.305.137.305.307,0,.168-.137.305-.305.305" fill="#fff" stroke-width="0"/>
  <path d="M404.329,220.213h-7.858c-.17,0-.307-.137-.307-.305,0-.17.137-.307.307-.307h7.858c.168,0,.305.137.305.307,0,.168-.137.305-.305.305" fill="#fff" stroke-width="0"/>
  <path d="M404.329,226.126h-7.858c-.17,0-.307-.137-.307-.305,0-.17.137-.307.307-.307h7.858c.168,0,.305.137.305.307,0,.168-.137.305-.305.305" fill="#fff" stroke-width="0"/>
  <path d="M404.329,232.038h-7.858c-.17,0-.307-.137-.307-.305,0-.17.137-.307.307-.307h7.858c.168,0,.305.137.305.307,0,.168-.137.305-.305.305" fill="#fff" stroke-width="0"/>
  <path d="M404.329,237.951h-7.858c-.17,0-.307-.137-.307-.305,0-.17.137-.307.307-.307h7.858c.168,0,.305.137.305.307,0,.168-.137.305-.305.305" fill="#fff" stroke-width="0"/>
  <path d="M404.329,243.863h-7.858c-.17,0-.307-.137-.307-.305,0-.17.137-.307.307-.307h7.858c.168,0,.305.137.305.307,0,.168-.137.305-.305.305" fill="#fff" stroke-width="0"/>
  <path d="M404.329,249.776h-7.858c-.17,0-.307-.137-.307-.305,0-.17.137-.307.307-.307h7.858c.168,0,.305.137.305.307,0,.168-.137.305-.305.305" fill="#fff" stroke-width="0"/>
  <path d="M404.329,255.688h-7.858c-.17,0-.307-.137-.307-.305,0-.17.137-.307.307-.307h7.858c.168,0,.305.137.305.307,0,.168-.137.305-.305.305" fill="#fff" stroke-width="0"/>
  <polygon points="339.1 179.601 328.592 135.149 299.441 117.497 214.724 117.497 249.581 258.402 349.3 258.402 349.3 194.21 339.1 179.601" fill="#91c349" stroke-width="0"/>
  <path d="M349.3,258.707h-99.719c-.14,0-.263-.095-.298-.232l-34.857-140.903c-.023-.093-.003-.188.055-.263.059-.075.148-.118.242-.118h84.719c.055,0,.111.017.157.045l29.152,17.653c.07.042.12.111.139.192l10.495,44.395,10.166,14.561c.036.051.056.112.056.176v64.189c0,.17-.137.307-.307.307M249.822,258.094h99.173v-63.787l-10.147-14.531c-.022-.033-.037-.067-.047-.106l-10.478-44.327-28.969-17.541h-84.24l34.708,140.291Z" fill="#fff" stroke-width="0"/>
  <polygon points="264.583 194.21 254.383 179.601 243.875 135.15 214.724 117.497 185.572 135.15 175.065 179.601 164.864 194.21 164.864 258.4 264.583 258.4 264.583 194.21" fill="#fdb515" stroke-width="0"/>
  <path d="M264.582,258.707h-99.719c-.168,0-.305-.137-.305-.307v-64.189c0-.064.019-.125.055-.176l10.168-14.562,10.493-44.394c.019-.081.07-.15.14-.192l29.151-17.653c.098-.059.22-.059.318,0l29.151,17.653c.07.042.12.111.14.192l10.493,44.394,10.168,14.562c.034.051.055.112.055.176v64.189c0,.17-.137.307-.307.307M165.171,258.095h99.106v-63.787l-10.146-14.533c-.022-.031-.039-.065-.047-.104l-10.478-44.327-28.883-17.489-28.883,17.489-10.478,44.327c-.009.039-.025.073-.047.104l-10.146,14.533v63.787Z" fill="#fff" stroke-width="0"/>
  <polygon points="339.1 179.601 328.592 135.149 299.441 117.497 214.724 117.497 243.875 135.149 254.382 179.601 339.1 179.601" fill="#fff" stroke-width="0"/>
  <path d="M339.1,179.907h-84.719c-.14,0-.265-.098-.298-.235l-10.476-44.327-29.042-17.586c-.118-.072-.174-.212-.137-.344.037-.132.157-.224.295-.224h84.717c.056,0,.111.016.159.044l29.151,17.653c.071.044.122.112.14.192l10.507,44.453c.02.09,0,.185-.059.26-.056.073-.145.115-.238.115M254.625,179.295h84.088l-10.387-43.95-28.97-17.542h-83.535l28.213,17.084c.072.044.12.112.14.192l10.451,44.216Z" fill="#fff" stroke-width="0"/>
  <rect x="192.417" y="216.411" width="44.614" height="41.989" fill="#91c349" stroke-width="0"/>
  <path d="M237.031,258.707h-44.613c-.17,0-.307-.137-.307-.307v-41.989c0-.168.137-.305.307-.305h44.613c.17,0,.307.137.307.305v41.989c0,.17-.137.307-.307.307M192.722,258.094h44.003v-41.376h-44.003v41.376Z" fill="#fff" stroke-width="0"/>
  <path d="M195.461,228.249h4.211v-4.211h-4.211v4.211ZM202.325,228.249h4.211v-4.211h-4.211v4.211ZM209.187,228.249h4.211v-4.211h-4.211v4.211ZM216.05,228.249h4.211v-4.211h-4.211v4.211ZM222.914,228.249h4.211v-4.211h-4.211v4.211ZM229.778,228.249h4.211v-4.211h-4.211v4.211Z" fill="#fff" stroke-width="0"/>
  <path d="M233.987,228.554h-4.211c-.168,0-.305-.137-.305-.305v-4.211c0-.168.137-.305.305-.305h4.211c.17,0,.307.137.307.305v4.211c0,.168-.137.305-.307.305M230.083,227.942h3.599v-3.598h-3.599v3.598ZM227.123,228.554h-4.209c-.17,0-.307-.137-.307-.305v-4.211c0-.168.137-.305.307-.305h4.209c.17,0,.307.137.307.305v4.211c0,.168-.137.305-.307.305M223.219,227.942h3.599v-3.598h-3.599v3.598ZM220.261,228.554h-4.211c-.17,0-.307-.137-.307-.305v-4.211c0-.168.137-.305.307-.305h4.211c.168,0,.305.137.305.305v4.211c0,.168-.137.305-.305.305M216.357,227.942h3.599v-3.598h-3.599v3.598ZM213.397,228.554h-4.211c-.168,0-.305-.137-.305-.305v-4.211c0-.168.137-.305.305-.305h4.211c.17,0,.305.137.305.305v4.211c0,.168-.136.305-.305.305M209.494,227.942h3.599v-3.598h-3.599v3.598ZM206.534,228.554h-4.209c-.17,0-.307-.137-.307-.305v-4.211c0-.168.137-.305.307-.305h4.209c.17,0,.307.137.307.305v4.211c0,.168-.137.305-.307.305M202.63,227.942h3.599v-3.598h-3.599v3.598ZM199.67,228.554h-4.209c-.17,0-.307-.137-.307-.305v-4.211c0-.168.137-.305.307-.305h4.209c.17,0,.307.137.307.305v4.211c0,.168-.137.305-.307.305M195.768,227.942h3.599v-3.598h-3.599v3.598Z" fill="#fff" stroke-width="0"/>
  <rect x="210.005" y="165.662" width="9.439" height="13.939" fill="#781e77" stroke-width="0"/>
  <path d="M219.443,179.908h-9.439c-.17,0-.307-.137-.307-.307v-13.939c0-.168.137-.305.307-.305h9.439c.17,0,.305.137.305.305v13.939c0,.17-.135.307-.305.307M210.311,179.294h8.825v-13.325h-8.825v13.325Z" fill="#fff" stroke-width="0"/>
  <path d="M252.559,135.014c-.055,0-.109-.014-.159-.044l-27.693-16.771c-.145-.087-.192-.276-.104-.419.089-.146.277-.192.421-.104l27.694,16.77c.145.089.19.277.103.421-.058.095-.159.148-.262.148" fill="#fdb515" stroke-width="0"/>
  <path d="M261.972,135.014c-.055,0-.109-.014-.159-.044l-27.693-16.771c-.145-.087-.192-.276-.104-.419.089-.146.277-.192.421-.104l27.694,16.77c.145.089.19.277.103.421-.058.095-.159.148-.262.148" fill="#fdb515" stroke-width="0"/>
  <path d="M271.385,135.014c-.055,0-.109-.014-.159-.044l-27.693-16.771c-.145-.087-.192-.276-.104-.419.089-.146.277-.192.421-.104l27.694,16.77c.145.089.192.277.103.421-.058.095-.159.148-.262.148" fill="#fdb515" stroke-width="0"/>
  <path d="M280.798,135.014c-.055,0-.109-.014-.159-.044l-27.693-16.771c-.145-.087-.192-.276-.104-.419.087-.146.277-.192.421-.104l27.694,16.77c.145.089.19.277.103.421-.058.095-.159.148-.262.148" fill="#fdb515" stroke-width="0"/>
  <path d="M290.212,135.014c-.055,0-.109-.014-.159-.044l-27.693-16.771c-.145-.087-.192-.276-.104-.419.089-.146.277-.192.421-.104l27.694,16.77c.145.089.19.277.103.421-.058.095-.159.148-.262.148" fill="#fdb515" stroke-width="0"/>
  <path d="M299.624,135.014c-.055,0-.109-.014-.159-.044l-27.693-16.771c-.145-.087-.192-.276-.104-.419.089-.146.277-.192.421-.104l27.694,16.77c.145.089.19.277.103.421-.058.095-.159.148-.262.148" fill="#fdb515" stroke-width="0"/>
  <path d="M309.038,135.014c-.055,0-.109-.014-.159-.044l-27.693-16.771c-.145-.087-.192-.276-.104-.419.089-.146.277-.192.421-.104l27.694,16.77c.145.089.19.277.103.421-.058.095-.159.148-.262.148" fill="#fdb515" stroke-width="0"/>
  <path d="M318.45,135.014c-.055,0-.109-.014-.159-.044l-27.693-16.771c-.145-.087-.192-.276-.104-.419.087-.146.277-.192.421-.104l27.694,16.77c.145.089.19.277.103.421-.058.095-.159.148-.262.148" fill="#fdb515" stroke-width="0"/>
  <path d="M263.532,178.796c-.139,0-.265-.095-.298-.237l-9.982-42.228c-.039-.164.064-.329.229-.368.165-.039.329.062.368.227l9.981,42.228c.039.165-.062.33-.226.369-.025.005-.048.008-.071.008" fill="#fdb515" stroke-width="0"/>
  <path d="M272.945,178.796c-.139,0-.265-.095-.298-.237l-9.982-42.228c-.039-.164.064-.329.229-.368.164-.039.329.062.368.227l9.981,42.228c.039.165-.062.33-.227.369-.023.005-.047.008-.07.008" fill="#fdb515" stroke-width="0"/>
  <path d="M282.359,178.796c-.139,0-.265-.095-.298-.237l-9.982-42.228c-.037-.164.064-.329.229-.368.165-.039.329.062.368.227l9.981,42.228c.039.165-.062.33-.227.369-.023.005-.047.008-.07.008" fill="#fdb515" stroke-width="0"/>
  <path d="M291.772,178.796c-.139,0-.265-.095-.298-.237l-9.982-42.228c-.039-.164.062-.329.228-.368.165-.039.33.062.369.227l9.981,42.228c.039.165-.062.33-.227.369-.023.005-.047.008-.07.008" fill="#fdb515" stroke-width="0"/>
  <path d="M301.184,178.796c-.139,0-.265-.095-.298-.237l-9.982-42.228c-.037-.164.064-.329.229-.368.164-.039.329.062.368.227l9.981,42.228c.039.165-.062.33-.227.369-.023.005-.047.008-.07.008" fill="#fdb515" stroke-width="0"/>
  <path d="M310.598,178.796c-.139,0-.265-.095-.298-.237l-9.982-42.228c-.039-.164.062-.329.228-.368.165-.039.33.062.369.227l9.981,42.228c.039.165-.062.33-.227.369-.023.005-.047.008-.07.008" fill="#fdb515" stroke-width="0"/>
  <path d="M320.01,178.796c-.139,0-.265-.095-.298-.237l-9.982-42.228c-.039-.164.064-.329.229-.368.164-.039.329.062.368.227l9.981,42.228c.039.165-.062.33-.227.369-.023.005-.047.008-.07.008" fill="#fdb515" stroke-width="0"/>
  <path d="M329.424,178.796c-.139,0-.265-.095-.298-.237l-9.982-42.228c-.037-.164.064-.329.229-.368.165-.039.329.062.368.227l9.981,42.228c.039.165-.062.33-.227.369-.023.005-.047.008-.07.008" fill="#fdb515" stroke-width="0"/>
  <path d="M273.741,194.151c-.097,0-.192-.047-.251-.131l-9.693-13.88c-.095-.137-.062-.329.076-.425.139-.097.33-.064.427.075l9.691,13.88c.097.139.064.329-.076.427-.053.037-.114.055-.174.055" fill="#fff" stroke-width="0"/>
  <path d="M283.155,194.151c-.097,0-.192-.047-.251-.131l-9.693-13.88c-.097-.137-.062-.329.076-.425.139-.097.329-.064.427.075l9.691,13.88c.097.139.064.329-.076.427-.053.037-.114.055-.174.055" fill="#fff" stroke-width="0"/>
  <path d="M292.567,194.151c-.097,0-.192-.047-.251-.131l-9.691-13.88c-.097-.137-.062-.329.076-.425.137-.097.329-.064.427.075l9.689,13.88c.097.139.064.329-.076.427-.053.037-.114.055-.174.055" fill="#fff" stroke-width="0"/>
  <path d="M301.98,194.151c-.097,0-.192-.047-.251-.131l-9.693-13.88c-.095-.137-.062-.329.076-.425.139-.097.33-.064.427.075l9.691,13.88c.097.139.064.329-.076.427-.053.037-.114.055-.174.055" fill="#fff" stroke-width="0"/>
  <path d="M311.393,194.151c-.097,0-.192-.047-.251-.131l-9.691-13.88c-.097-.137-.062-.329.076-.425.137-.097.329-.064.427.075l9.689,13.88c.097.139.064.329-.076.427-.053.037-.114.055-.174.055" fill="#d9edff" stroke-width="0"/>
  <path d="M320.807,194.151c-.097,0-.192-.047-.251-.131l-9.693-13.88c-.095-.137-.062-.329.076-.425.139-.097.33-.064.427.075l9.691,13.88c.097.139.064.329-.076.427-.053.037-.114.055-.174.055" fill="#d9edff" stroke-width="0"/>
  <path d="M330.22,194.151c-.097,0-.192-.047-.251-.131l-9.693-13.88c-.095-.137-.062-.329.076-.425.139-.097.33-.064.427.075l9.691,13.88c.097.139.064.329-.076.427-.053.037-.114.055-.174.055" fill="#d9edff" stroke-width="0"/>
  <path d="M339.632,194.151c-.097,0-.192-.047-.251-.131l-9.693-13.88c-.095-.137-.062-.329.076-.425.139-.097.33-.064.427.075l9.691,13.88c.097.139.064.329-.076.427-.053.037-.114.055-.174.055" fill="#d9edff" stroke-width="0"/>
  <path d="M328.593,135.455h-84.717c-.17,0-.307-.137-.307-.305,0-.17.137-.307.307-.307h84.717c.168,0,.305.137.305.307,0,.168-.137.305-.305.305" fill="#fdb515" stroke-width="0"/>
  <path d="M339.1,179.907h-84.717c-.17,0-.307-.137-.307-.305,0-.17.137-.307.307-.307h84.717c.168,0,.305.137.305.307,0,.168-.137.305-.305.305" fill="#fdb515" stroke-width="0"/>
  <path d="M349.301,194.517h-84.717c-.17,0-.307-.137-.307-.305,0-.17.137-.307.307-.307h84.717c.168,0,.305.137.305.307,0,.168-.137.305-.305.305" fill="#fff" stroke-width="0"/>
  <rect x="174.324" y="194.21" width="18.876" height="13.939" fill="#781e77" stroke-width="0"/>
  <path d="M193.201,208.456h-18.877c-.168,0-.305-.137-.305-.307v-13.938c0-.17.137-.307.305-.307h18.877c.168,0,.305.137.305.307v13.938c0,.17-.137.307-.305.307M174.629,207.842h18.263v-13.325h-18.263v13.325Z" fill="#fff" stroke-width="0"/>
  <path d="M183.762,208.455c-.168,0-.305-.137-.305-.305v-13.939c0-.17.137-.307.305-.307.17,0,.307.137.307.307v13.939c0,.168-.137.305-.307.305" fill="#fff" stroke-width="0"/>
  <rect x="236.249" y="194.21" width="18.876" height="13.939" fill="#781e77" stroke-width="0"/>
  <path d="M255.124,208.456h-18.876c-.17,0-.307-.137-.307-.307v-13.938c0-.17.137-.307.307-.307h18.876c.168,0,.305.137.305.307v13.938c0,.17-.137.307-.305.307M236.554,207.842h18.263v-13.325h-18.263v13.325Z" fill="#fff" stroke-width="0"/>
  <path d="M245.686,208.455c-.168,0-.305-.137-.305-.305v-13.939c0-.17.137-.307.305-.307.17,0,.307.137.307.307v13.939c0,.168-.137.305-.307.305" fill="#fff" stroke-width="0"/>
  <polygon points="260.796 168.263 253.015 135.15 275.09 135.15 282.873 168.263 260.796 168.263" fill="#781e77" stroke-width="0"/>
  <path d="M282.871,168.568h-22.075c-.142,0-.265-.098-.298-.237l-7.781-33.112c-.022-.092,0-.187.058-.26s.146-.115.24-.115h22.075c.142,0,.265.097.298.235l7.783,33.114c.02.09,0,.185-.058.26-.059.073-.146.115-.242.115M261.038,167.956h21.446l-7.638-32.502h-21.446l7.638,32.502Z" fill="#fdb515" stroke-width="0"/>
  <path d="M275.57,142.078h-19.924c-.17,0-.305-.137-.305-.305,0-.17.136-.307.305-.307h19.924c.168,0,.305.137.305.307,0,.168-.137.305-.305.305" fill="#91c349" stroke-width="0"/>
  <path d="M277.126,148.701h-19.924c-.17,0-.305-.137-.305-.305,0-.17.136-.307.305-.307h19.924c.168,0,.305.137.305.307,0,.168-.137.305-.305.305" fill="#91c349" stroke-width="0"/>
  <path d="M278.683,155.323h-19.924c-.17,0-.305-.137-.305-.305,0-.17.136-.307.305-.307h19.924c.168,0,.305.137.305.307,0,.168-.137.305-.305.305" fill="#91c349" stroke-width="0"/>
  <path d="M280.239,161.946h-19.923c-.17,0-.307-.137-.307-.305,0-.17.137-.307.307-.307h19.923c.17,0,.307.137.307.307,0,.168-.137.305-.307.305" fill="#91c349" stroke-width="0"/>
  <path d="M266.12,167.741c-.139,0-.265-.095-.298-.237l-7.393-31.456c-.039-.165.064-.33.229-.369.16-.037.329.064.368.229l7.392,31.458c.039.164-.062.329-.227.368-.023.005-.047.008-.07.008" fill="#91c349" stroke-width="0"/>
  <path d="M271.639,167.741c-.139,0-.265-.095-.298-.237l-7.393-31.456c-.039-.165.064-.33.229-.369.16-.037.329.064.368.229l7.392,31.458c.039.164-.062.329-.227.368-.023.005-.047.008-.07.008" fill="#91c349" stroke-width="0"/>
  <path d="M277.158,167.741c-.139,0-.265-.095-.298-.237l-7.393-31.456c-.039-.165.064-.33.227-.369.162-.037.33.064.369.229l7.392,31.458c.039.164-.062.329-.227.368-.023.005-.047.008-.07.008" fill="#91c349" stroke-width="0"/>
  <polygon points="282.872 168.263 275.091 135.15 297.166 135.15 304.949 168.263 282.872 168.263" fill="#781e77" stroke-width="0"/>
  <path d="M304.948,168.568h-22.077c-.142,0-.265-.098-.298-.237l-7.781-33.112c-.022-.092,0-.187.058-.26s.146-.115.24-.115h22.077c.14,0,.265.097.297.235l7.781,33.114c.022.09,0,.185-.058.26-.059.073-.146.115-.24.115M283.114,167.956h21.448l-7.639-32.502h-21.446l7.638,32.502Z" fill="#fdb515" stroke-width="0"/>
  <path d="M297.646,142.078h-19.924c-.17,0-.305-.137-.305-.305,0-.17.136-.307.305-.307h19.924c.17,0,.307.137.307.307,0,.168-.137.305-.307.305" fill="#91c349" stroke-width="0"/>
  <path d="M299.202,148.701h-19.924c-.17,0-.305-.137-.305-.305,0-.17.136-.307.305-.307h19.924c.17,0,.307.137.307.307,0,.168-.137.305-.307.305" fill="#91c349" stroke-width="0"/>
  <path d="M300.759,155.323h-19.924c-.17,0-.307-.137-.307-.305,0-.17.137-.307.307-.307h19.924c.17,0,.307.137.307.307,0,.168-.137.305-.307.305" fill="#91c349" stroke-width="0"/>
  <path d="M302.315,161.946h-19.924c-.17,0-.305-.137-.305-.305,0-.17.136-.307.305-.307h19.924c.17,0,.307.137.307.307,0,.168-.137.305-.307.305" fill="#91c349" stroke-width="0"/>
  <path d="M288.196,167.741c-.139,0-.265-.095-.298-.237l-7.393-31.456c-.039-.165.064-.33.227-.369.162-.037.33.064.369.229l7.392,31.458c.039.164-.062.329-.227.368-.023.005-.047.008-.07.008" fill="#91c349" stroke-width="0"/>
  <path d="M293.715,167.741c-.139,0-.265-.095-.298-.237l-7.393-31.456c-.039-.165.064-.33.227-.369.162-.037.33.064.369.229l7.392,31.458c.039.164-.062.329-.227.368-.023.005-.047.008-.07.008" fill="#91c349" stroke-width="0"/>
  <path d="M299.234,167.741c-.139,0-.265-.095-.298-.237l-7.393-31.456c-.037-.165.064-.33.229-.369.164-.037.329.064.368.229l7.392,31.458c.039.164-.062.329-.227.368-.023.005-.047.008-.07.008" fill="#91c349" stroke-width="0"/>
  <polygon points="304.948 168.263 297.167 135.15 319.242 135.15 327.025 168.263 304.948 168.263" fill="#781e77" stroke-width="0"/>
  <path d="M327.024,168.568h-22.077c-.142,0-.265-.098-.298-.237l-7.781-33.112c-.022-.092,0-.187.058-.26s.146-.115.24-.115h22.077c.14,0,.265.097.297.235l7.781,33.114c.022.09,0,.185-.058.26-.059.073-.146.115-.24.115M305.19,167.956h21.448l-7.639-32.502h-21.446l7.638,32.502Z" fill="#fdb515" stroke-width="0"/>
  <path d="M319.722,142.078h-19.924c-.17,0-.307-.137-.307-.305,0-.17.137-.307.307-.307h19.924c.168,0,.305.137.305.307,0,.168-.137.305-.305.305" fill="#91c349" stroke-width="0"/>
  <path d="M321.279,148.701h-19.924c-.17,0-.307-.137-.307-.305,0-.17.137-.307.307-.307h19.924c.168,0,.305.137.305.307,0,.168-.137.305-.305.305" fill="#91c349" stroke-width="0"/>
  <path d="M322.835,155.323h-19.924c-.168,0-.305-.137-.305-.305,0-.17.137-.307.305-.307h19.924c.168,0,.305.137.305.307,0,.168-.137.305-.305.305" fill="#91c349" stroke-width="0"/>
  <path d="M324.391,161.946h-19.924c-.168,0-.305-.137-.305-.305,0-.17.137-.307.305-.307h19.924c.168,0,.305.137.305.307,0,.168-.137.305-.305.305" fill="#91c349" stroke-width="0"/>
  <path d="M310.272,167.741c-.139,0-.265-.095-.298-.237l-7.393-31.456c-.037-.165.064-.33.227-.369.165-.037.33.064.369.229l7.392,31.458c.039.164-.062.329-.227.368-.023.005-.047.008-.07.008" fill="#91c349" stroke-width="0"/>
  <path d="M315.791,167.741c-.139,0-.265-.095-.298-.237l-7.393-31.456c-.039-.165.064-.33.227-.369.162-.037.33.064.369.229l7.392,31.458c.039.164-.062.329-.227.368-.023.005-.047.008-.07.008" fill="#91c349" stroke-width="0"/>
  <path d="M321.31,167.741c-.139,0-.265-.095-.298-.237l-7.393-31.456c-.039-.165.064-.33.229-.369.16-.037.329.064.368.229l7.392,31.458c.039.164-.062.329-.227.368-.023.005-.047.008-.07.008" fill="#91c349" stroke-width="0"/>
  <polygon points="387.152 194.21 361.179 174.923 335.208 194.21 335.208 258.4 387.152 258.4 387.152 194.21" fill="#fdb515" stroke-width="0"/>
  <path d="M387.151,258.707h-51.944c-.168,0-.305-.137-.305-.307v-64.189c0-.098.045-.188.123-.246l25.973-19.289c.108-.079.256-.079.365,0l25.971,19.289c.079.058.125.148.125.246v64.189c0,.17-.137.307-.307.307M335.514,258.095h51.332v-63.731l-25.666-19.06-25.666,19.06v63.731Z" fill="#fff" stroke-width="0"/>
  <polygon points="361.18 174.923 305.863 174.923 279.891 194.21 335.207 194.21 361.18 174.923" fill="#91c349" stroke-width="0"/>
  <path d="M326.638,194.034c-.094,0-.185-.042-.246-.123-.101-.136-.072-.329.062-.428l24.675-18.323c.134-.101.327-.073.427.062.101.137.073.327-.062.428l-24.674,18.323c-.055.042-.118.061-.182.061" fill="#fff" stroke-width="0"/>
  <path d="M317.418,194.034c-.094,0-.185-.042-.246-.123-.101-.136-.072-.329.062-.428l24.675-18.323c.134-.101.327-.073.427.062.101.137.073.327-.062.428l-24.674,18.323c-.055.042-.118.061-.182.061" fill="#fff" stroke-width="0"/>
  <path d="M308.199,194.034c-.094,0-.185-.042-.246-.123-.101-.136-.072-.329.062-.428l24.675-18.323c.134-.101.327-.073.427.062.101.137.073.327-.062.428l-24.674,18.323c-.055.042-.118.061-.182.061" fill="#fff" stroke-width="0"/>
  <path d="M298.979,194.034c-.094,0-.185-.042-.246-.123-.101-.136-.072-.329.062-.428l24.675-18.323c.134-.101.327-.073.427.062.101.137.073.327-.062.428l-24.674,18.323c-.055.042-.118.061-.182.061" fill="#fff" stroke-width="0"/>
  <path d="M289.76,194.034c-.094,0-.185-.042-.246-.123-.101-.136-.072-.329.064-.428l24.674-18.323c.134-.101.327-.073.427.062.101.137.073.327-.062.428l-24.674,18.323c-.055.042-.118.061-.182.061" fill="#fff" stroke-width="0"/>
  <rect x="279.892" y="194.21" width="55.317" height="64.19" fill="#91c349" stroke-width="0"/>
  <path d="M335.209,258.707h-55.319c-.168,0-.305-.137-.305-.307v-64.189c0-.17.137-.307.305-.307h55.319c.168,0,.305.137.305.307v64.189c0,.17-.137.307-.305.307M280.197,258.094h54.705v-63.578h-54.705v63.578Z" fill="#fff" stroke-width="0"/>
  <rect x="298.112" y="216.411" width="18.876" height="13.939" fill="#781e77" stroke-width="0"/>
  <path d="M316.987,230.656h-18.876c-.17,0-.307-.137-.307-.305v-13.939c0-.168.137-.305.307-.305h18.876c.17,0,.307.137.307.305v13.939c0,.168-.137.305-.307.305M298.417,230.045h18.263v-13.327h-18.263v13.327Z" fill="#fff" stroke-width="0"/>
  <path d="M307.549,230.657c-.17,0-.307-.137-.307-.305v-13.939c0-.17.137-.307.307-.307.168,0,.305.137.305.307v13.939c0,.168-.137.305-.305.305" fill="#fff" stroke-width="0"/>
  <path d="M361.18,258.707h-14.872c-.168,0-.305-.137-.305-.307v-35.019c0-.168.137-.305.305-.305h14.872c.17,0,.307.137.307.305v35.019c0,.17-.137.307-.307.307M346.615,258.094h14.258v-34.407h-14.258v34.407Z" fill="#fff" stroke-width="0"/>
  <path d="M361.18,258.707c-.118,0-.232-.07-.282-.187l-14.871-35.019c-.067-.156.006-.336.16-.402.154-.065.336.006.402.162l14.872,35.019c.065.156-.006.336-.162.402-.039.017-.079.025-.12.025" fill="#fff" stroke-width="0"/>
  <path d="M346.308,258.707c-.041,0-.081-.008-.12-.025-.156-.065-.227-.246-.162-.402l14.872-35.019c.065-.156.248-.227.402-.162.154.065.227.246.16.402l-14.871,35.019c-.05.117-.164.187-.282.187" fill="#fff" stroke-width="0"/>
  <path d="M376.051,258.707h-14.871c-.17,0-.307-.137-.307-.307v-35.019c0-.168.137-.305.307-.305h14.871c.17,0,.307.137.307.305v35.019c0,.17-.137.307-.307.307M361.487,258.094h14.258v-34.407h-14.258v34.407Z" fill="#fff" stroke-width="0"/>
  <path d="M376.051,258.707c-.12,0-.232-.07-.282-.187l-14.871-35.019c-.067-.156.006-.336.16-.402.154-.065.336.006.402.162l14.872,35.019c.065.156-.006.336-.162.402-.039.017-.079.025-.12.025" fill="#fff" stroke-width="0"/>
  <path d="M361.18,258.707c-.041,0-.081-.008-.12-.025-.156-.065-.227-.246-.162-.402l14.872-35.019c.065-.156.248-.227.402-.162.156.065.227.246.16.402l-14.871,35.019c-.05.117-.162.187-.282.187" fill="#fff" stroke-width="0"/>
  <path d="M382.237,219.779h-42.115c-.17,0-.307-.137-.307-.305,0-.17.137-.307.307-.307h42.115c.17,0,.307.137.307.307,0,.168-.137.305-.307.305" fill="#fff" stroke-width="0"/>
  <path d="M335.207,194.516h-55.317c-.132,0-.249-.084-.291-.21-.041-.125.002-.263.109-.341l25.971-19.288c.053-.039.117-.059.182-.059h55.319c.131,0,.249.084.29.21.041.125-.002.262-.109.341l-25.971,19.287c-.053.039-.117.061-.182.061M280.816,193.904h54.29l25.147-18.675h-54.29l-25.147,18.675Z" fill="#fff" stroke-width="0"/>
</svg>