<svg id="ODS2_" xmlns="http://www.w3.org/2000/svg" width="115" height="115" viewBox="0 0 115 115">
  <path id="goal_background" data-name="goal background" d="M-1.08-1.08h115v115h-115Z" transform="translate(1.08 1.08)" fill="#dda83a"/>
  <g id="ENG_text_graphics" data-name="ENG text &amp; graphics" transform="translate(8.95 9.727)">
    <path id="Caminho_53" data-name="Caminho 53" d="M55.12,79.253l5.333-8.2c1.164-1.814,2.328-3.33,2.328-5.36,0-1.408-.541-2.166-1.592-2.166-1.592,0-1.976,1.462-1.976,3.249v1H55.12V66.688C55.12,62.817,56.8,60,61.1,60c3.844,0,5.82,2.139,5.82,5.766,0,2.68-1.381,4.548-2.866,6.795L59.83,78.9h6.5v3.3H55.12ZM76.44,60.26h3.448v1.056H77.956v2.443h1.573v1.065H77.956v3.822H76.44Zm4.083,5.755V62.866c0-1.7.621-2.707,2.422-2.707s2.413,1.011,2.413,2.707v3.148c0,1.686-.621,2.742-2.411,2.742S80.523,67.712,80.523,66.015Zm3.28.361v-3.86c0-.7-.113-1.233-.858-1.233s-.869.529-.869,1.233V66.37c0,.694.113,1.253.869,1.253s.858-.553.858-1.253Zm2.753-6.117h1.592l1.19,5.806,1.233-5.806h1.542l.159,8.384h-1.15L91,62.815l-1.191,5.828h-.92l-1.212-5.849-.113,5.849h-1.15Zm6.894,0h3.519v1.076h-2v2.411h1.573v1.067H94.973V67.6H96.99v1.046H93.45Zm6.558,7.4,2.247-6.344h-2.128V60.26H103.8v.787L101.462,67.6h2.35v1.046h-3.8Zm4.632-7.4h3.519v1.076h-2v2.411h1.573v1.067h-1.573V67.6h2.019v1.046h-3.54Zm4.378,0h2.019c1.677,0,2.629.538,2.629,2.229,0,1-.248,1.709-1.035,2.029l1.169,4.131h-1.53l-1-3.841h-.725v3.841H109.02Zm2.008,3.591c.881,0,1.2-.382,1.2-1.284,0-.849-.237-1.263-1.115-1.263h-.569v2.548Zm3.572,2.164V62.866c0-1.7.621-2.707,2.422-2.707s2.416,1.011,2.416,2.707v3.148c0,1.686-.621,2.742-2.411,2.742S114.6,67.712,114.6,66.015Zm3.28.361v-3.86c0-.7-.113-1.233-.858-1.233s-.869.529-.869,1.233V66.37c0,.694.113,1.253.869,1.253s.858-.553.858-1.253ZM76.44,73.955h3.519v1.076h-2v2.411h1.573v1.067H77.956v2.784h2.018v1.046H76.44Zm8.088,0h1.635l1.677,8.384H86.423L86.091,80.4h-1.46l-.341,1.936H82.857Zm1.4,5.473-.569-3.518-.57,3.518Zm2.484.146V76.759c0-1.8.548-2.9,2.389-2.9,1.718,0,2.319.89,2.319,2.443v.435H91.659V76.26c0-.807-.083-1.284-.839-1.284-.807,0-.869.653-.869,1.419v3.5c0,.869.159,1.419.911,1.419s.922-.58.922-1.491v-.787h-.9v-.963H93.16v4.255h-.994l-.1-.819a1.413,1.413,0,0,1-1.417.932C88.99,82.454,88.41,81.339,88.41,79.574Zm5.865-5.62H96.3c1.677,0,2.629.538,2.629,2.229,0,1-.248,1.709-1.035,2.029l1.169,4.131H97.528l-1-3.841H95.8v3.841H94.275Zm2.008,3.591c.881,0,1.2-.382,1.2-1.284,0-.849-.237-1.263-1.115-1.263H95.8v2.548Zm3.792-3.591h1.511v8.384h-1.511Zm2.62,5.7V76.667c0-1.718.548-2.806,2.389-2.806,1.718,0,2.268.955,2.268,2.413v.7h-1.47v-.725c0-.7-.011-1.274-.787-1.274s-.86.6-.86,1.366v3.634c0,.911.186,1.346.86,1.346.755,0,.787-.591.787-1.336v-.755h1.47v.672c0,1.481-.5,2.548-2.268,2.548C103.242,82.454,102.694,81.293,102.694,79.657Zm5.61-.03V73.955H109.8V79.8c0,.8.092,1.511.869,1.511s.879-.713.879-1.511V73.955h1.481v5.672c0,1.76-.487,2.825-2.36,2.825s-2.36-1.065-2.36-2.825Zm5.876-5.672H115.7v7.338h2.038v1.046h-3.561Zm4.723,1.127h-1.336V73.955h4.172v1.127h-1.3v7.257H118.9Zm3.487,4.545V73.955h1.491V79.8c0,.8.092,1.511.869,1.511s.881-.713.881-1.511V73.955h1.479v5.672c0,1.76-.486,2.825-2.36,2.825s-2.36-1.065-2.36-2.825Zm5.868-5.672h2.019c1.677,0,2.629.538,2.629,2.229,0,1-.249,1.709-1.035,2.029l1.169,4.131H131.51l-1-3.841h-.72v3.841h-1.522Zm2,3.591c.881,0,1.2-.382,1.2-1.284,0-.849-.237-1.263-1.115-1.263h-.564v2.548Zm5-3.591H136.9l1.677,8.384h-1.419L136.83,80.4h-1.459l-.342,1.936H133.6Zm1.4,5.473-.568-3.519-.577,3.519ZM76.226,93.591l1.315-.26c.041.994.279,1.635.955,1.635.478,0,.693-.331.693-.787a2.015,2.015,0,0,0-.92-1.6l-1.056-.922a2.475,2.475,0,0,1-.973-2.029,1.941,1.941,0,0,1,2.163-2.07c1.573,0,2.019,1.056,2.1,2.277l-1.315.228c-.03-.787-.145-1.376-.817-1.376a.7.7,0,0,0-.7.787,1.521,1.521,0,0,0,.683,1.263l1.045.92a3.107,3.107,0,0,1,1.253,2.433,1.984,1.984,0,0,1-2.1,2.059c-1.535,0-2.26-.89-2.322-2.556Zm5.207-.269V87.65h1.491V93.5c0,.8.092,1.511.869,1.511s.879-.713.879-1.511V87.65h1.481v5.672c0,1.76-.487,2.825-2.36,2.825S81.434,95.082,81.434,93.322Zm5.661.269,1.315-.26c.041.994.279,1.635.955,1.635.486,0,.693-.331.693-.787a2.014,2.014,0,0,0-.92-1.6l-1.056-.922a2.475,2.475,0,0,1-.973-2.029,1.941,1.941,0,0,1,2.163-2.07c1.573,0,2.019,1.056,2.1,2.277l-1.315.228c-.03-.787-.145-1.376-.817-1.376a.7.7,0,0,0-.7.787,1.521,1.521,0,0,0,.683,1.263l1.045.92a3.111,3.111,0,0,1,1.253,2.433,1.984,1.984,0,0,1-2.1,2.059c-1.535,0-2.26-.89-2.322-2.556ZM93.2,88.777H91.867V87.65h4.171v1.127h-1.3v7.257H93.2Zm3.551-1.127h3.519v1.076h-2v2.411h1.575V92.2H98.275v2.784h2.019v1.046H96.753Zm4.378,0H102.2l2.038,4.777V87.65H105.5v8.384h-1.014l-2.049-5.01v5.01h-1.3Zm6.429,1.127h-1.341V87.65h4.172v1.127h-1.306v7.257h-1.532Zm4.6-1.127h1.635l1.677,8.384h-1.419l-.331-1.936h-1.459l-.342,1.936h-1.433Zm1.4,5.473-.569-3.519-.57,3.519ZM113.179,85h1.433l-1.228,2.07h-.819Zm2.37,2.648h1.339L118,93.58l1.046-5.93h1.376l-1.686,8.384h-1.5Zm5.683,0h3.519v1.076h-2v2.411h1.573V92.2h-1.573v2.784h2.019v1.046h-3.54Zm4.378,0h1.522v7.338h2.038v1.046H125.61ZM91.988,152.317v1.624a.247.247,0,0,0,0,.037.317.317,0,0,0,0,.038.763.763,0,0,0,.748.729H111.86a.766.766,0,0,0,.752-.763v-1.849c10.728-3.518,18.767-12.212,20.531-22.809a.117.117,0,0,1,.011-.062.647.647,0,0,0,.011-.107.769.769,0,0,0-.771-.771H71.662a.769.769,0,0,0-.772.771l.04.346c1.847,10.7,10.109,19.441,21.058,22.815m20.6-49.855c-.25.357-6.118,8.8.131,15.636,2.866,3.136,2.618,5.9,1.8,7.77h4.008c.812-2.758.478-6.218-2.777-9.774-4.6-5.034.059-11.837.129-11.943a1.5,1.5,0,0,0-.65-2.244,2.13,2.13,0,0,0-2.64.554m-10.145,23.407h4.01c.811-2.758.478-6.21-2.78-9.774-4.607-5.034.054-11.835.127-11.943a1.5,1.5,0,0,0-.651-2.239,2.122,2.122,0,0,0-2.637.554c-.252.355-6.125,8.8.131,15.636,2.866,3.136,2.616,5.9,1.8,7.77M88.426,102.463c-.253.357-6.121,8.8.129,15.636,2.866,3.137,2.62,5.9,1.8,7.77h4.01c.811-2.756.478-6.21-2.782-9.774-4.607-5.034.057-11.837.131-11.943a1.5,1.5,0,0,0-.654-2.241,2.119,2.119,0,0,0-2.635.554" transform="translate(-55.12 -60)" fill="#fff"/>
  </g>
</svg>
