<svg xmlns="http://www.w3.org/2000/svg" xmlns:xlink="http://www.w3.org/1999/xlink" width="24.546" height="14.579" viewBox="0 0 24.546 14.579">
  <defs>
    <clipPath id="clip-path">
      <rect width="24.546" height="14.579" fill="none"/>
    </clipPath>
  </defs>
  <g id="Repetição_de_grade_1" data-name="Repetição de grade 1" clip-path="url(#clip-path)">
    <g transform="translate(0 0)">
      <path id="Linha_2" data-name="Linha 2" d="M12.273,14.579a1.2,1.2,0,0,1-.887-.392L.312,2.005A1.2,1.2,0,1,1,2.086.392L13.16,12.574a1.2,1.2,0,0,1-.887,2.005Z" fill="#fff"/>
      <path id="Linha_3" data-name="Linha 3" d="M1.2,14.579a1.2,1.2,0,0,1-.887-2.005L11.386.392A1.2,1.2,0,1,1,13.16,2.005L2.086,14.187A1.2,1.2,0,0,1,1.2,14.579Z" transform="translate(11.074)" fill="#fff"/>
    </g>
  </g>
</svg>
