<svg xmlns="http://www.w3.org/2000/svg" xmlns:xlink="http://www.w3.org/1999/xlink" width="16.825" height="10.525" viewBox="0 0 16.825 10.525">
  <defs>
    <clipPath id="clip-path">
      <rect width="16.825" height="10.525" fill="none"/>
    </clipPath>
  </defs>
  <g id="Repetição_de_grade_1" data-name="Repetição de grade 1" transform="translate(16.825 10.525) rotate(180)" clip-path="url(#clip-path)">
    <g id="Grupo_90" data-name="Grupo 90" transform="translate(1.413 1.413)">
      <line id="Linha_2" data-name="Linha 2" x2="7" y2="7.7" transform="translate(7 7.7) rotate(180)" fill="none" stroke="#fff" stroke-linecap="round" stroke-width="2"/>
      <line id="Linha_3" data-name="Linha 3" x1="7" y2="7.7" transform="translate(14 7.7) rotate(180)" fill="none" stroke="#fff" stroke-linecap="round" stroke-width="2"/>
    </g>
  </g>
</svg>
