<svg xmlns="http://www.w3.org/2000/svg" width="17" height="17" viewBox="0 0 17 17">
  <path id="Caminho_44" data-name="Caminho 44" d="M11.119,8.2,17.449,1h-1.5l-5.5,6.25L6.062,1H1l6.637,9.451L1,18H2.5l5.8-6.6L12.938,18H18ZM9.065,10.534l-.674-.942L3.04,2.106h2.3L9.664,8.15l.671.942,5.614,7.856h-2.3Z" transform="translate(-1 -1)" fill="#fff"/>
</svg>
